[
    {
        "message": "Šī ir no gitlab, startDate valid, endDate - 14:30",
        "icon": "ic-warn-round",
        "style": "Strong",
        "canClose": true,
        "order": 1,
        "endDate": "2023.11.27 14:30",
        "startDate": "2023.11.27 13:00"
    }, {
        "message": "Šī ir no gitlab, startDate valid, endDate - 14:50",
        "icon": "ic-warn-round",
        "style": "Strong",
        "canClose": true,
        "order": 1,
        "endDate": "2023.11.27 14:50",
        "startDate": "2023.11.27 13:00"
    }, {
        "message": "Šī ir no gitlab, can close, show in all portal pages, order 1",
        "icon": "ic-warn-round",
        "style": "Strong",
        "canClose": true,
        "order": 1,
        "path": "mailbox",
        "endDate": "2023.11.27 08:50"
    }, {
        "message": "Šī ir no gitlab - default params, no date interval, no path, no order",
        "icon": "ic-warn-round",
    }, {
        "message": "Šī ir no gitlab cant close, order 2, path content <a href='#'>saite</a>",
        "icon": "ic-warn-round",
        "style": "Dark",
        "canClose": false,
        "order": 2,
        "path": "dev",
        "startDate": "2023.11.27 08:50"
    }, {
        "message": "Šī ir no gitlab can close, order White 5, path content <a href='#'>saite</a>",
        "icon": "ic-warn-round",
        "style": "White",
        "canClose": true,
        "order": 5,
        "path": "dev",
        "startDate": "2023.10.12 11:44",
        "endDate": "2024.11.27 08:10"
    }, {
        "message": "Šī ir no gitlab can close, order LightGray 6, path content <a href='#'>saite</a>",
        "icon": "ic-warn-round",
        "style": "LightGray",
        "canClose": true,
        "order": 6,
        "path": "dev",
        "startDate": "2023.11.27 07:44"
    }, {
        "message": "Šī ir no gitlab can close, order MediumGray 7, path content <a href='#'>saite</a>",
        "icon": "ic-warn-round",
        "style": "MediumGray",
        "canClose": true,
        "order": 7,
        "path": "dev",
        "startDate": "2023.11.27 09:44"
    }
]
